module example.com/hello

go 1.18

replace example.com/greetings => ../greetings

require example.com/greetings v0.0.0-00010101000000-000000000000

require (
	golang.org/x/text v0.3.7 // indirect
	rsc.io/quote v1.5.2 // indirect
	rsc.io/quote/v3 v3.1.0 // indirect
	rsc.io/sampler v1.3.1 // indirect
)
